{
  "Ascus Biosciences": {
    "Mallory Embree": {
      "url": "https://www.linkedin.com/in/mallory-embree-1223596/",
      "email": "mallory@ascusbiosciences.com",
      "papers": [
        "https://www.ncbi.nlm.nih.gov/pmc/articles/PMC6917770/",
        "https://www.ncbi.nlm.nih.gov/pmc/articles/PMC6606625/"
      ]
    }
  },
  "BioLegend": {
    "Jason Lehmann": {
      "url": "https://www.linkedin.com/in/lehmannjasons/",
      "email": "jlehmann@biolegend.com",
      "papers": [
        "https://www.ncbi.nlm.nih.gov/pubmed/31727238"
      ]
    }
  },
  "Illumina": {
    "Yun Ding": {
      "url": "https://www.linkedin.com/in/yunding06/",
      "email": "yding2@illumina.com",
      "papers": [
        ""
      ]
    },
    "Jeffrey Yuan": {
      "url": "https://www.linkedin.com/in/jeffreyyuan29/",
      "email": "",
      "papers": [
        ""
      ]
    },
    "Dylan Skola": {
      "url": "https://www.linkedin.com/in/dylan-skola-83a2a13/",
      "email": "dskola@illumina.com",
      "papers": [
        ""
      ]
    },
    "Brian Tsui": {
      "url": "https://www.linkedin.com/in/brian-y-tsui/",
      "email": "",
      "papers": [
        ""
      ]
    },
    "Charles Aylward": {
      "url": "",
      "email": "caylward@illumina.com"
    }
  },
  "Monoceros Biosystems": {
    "Bill Greenwald": {
      "url": "https://www.linkedin.com/in/bill-greenwald/",
      "email": "billgreenwald@eng.ucsd.edu"
    }
  },
  "Pathway Genomics": {
    "Tanya Moreno": {
      "url": "https://www.linkedin.com/in/tanya-moreno/",
      "email": "tamoreno@gmail.com",
      "papers": [
        "https://www.ncbi.nlm.nih.gov/pmc/articles/PMC4606558/",
        "https://www.ncbi.nlm.nih.gov/pmc/articles/PMC4256737/"
      ]
    }
  },
  "Millenium Health": {
    "Tanya Moreno": {
      "url": "https://www.linkedin.com/in/tanya-moreno/",
      "email": "tamoreno@gmail.com",
      "papers": [
        "https://www.ncbi.nlm.nih.gov/pmc/articles/PMC4533947/",
        "https://www.ncbi.nlm.nih.gov/pmc/articles/PMC6443844/",
        "https://www.ncbi.nlm.nih.gov/pmc/articles/PMC5895772/"
      ]
    }
  },
  "Poseida Theraputics": {
    "Xinxin Wang": {
      "url": "https://www.linkedin.com/in/xinxin-wang-89815971/",
      "email": "xwang@poseida.com",
      "papers": ["https://www.ncbi.nlm.nih.gov/pmc/articles/PMC5713229/"]
    }
  },
  "Rancho Biosciences": {
    "John Obenauer": {
      "url": "https://www.linkedin.com/in/john-obenauer-2a70899/",
      "email": "john.obenauer@ranchobiosciences.com",
      "papers": ["https://www.ncbi.nlm.nih.gov/pmc/articles/PMC6802086/"]
    }
  },
  "Sapient": {
    "Tao Long": {
      "url": "https://www.linkedin.com/in/longtao/",
      "email": "",
      "papers": ["https://www.nature.com/articles/ng.3809"]
    }
  },
  "Eclipse": {
    "Sergei Manakov": {
      "url": "https://www.linkedin.com/in/sergei-manakov-01234694/",
      "email": "",
      "papers": ["https://pubmed.ncbi.nlm.nih.gov/26279574/"]
    }
  }

}